23006843
22733720
22442145
22367038
22081342
21813623
21765476
21641572
21602917
21316601
21248750
20959611
20739953
20440268
20332278
20028558
19789319
19723875
19404404
19155300
19131569
19088042
18842599
18369103
18342607
18266105
18243105
18227516
17712417
17686054
17496320
17418406
17098889
16791207
16697953
16604156
16230383
9634527
9399893
9328471
9433591
9433550
9002040
8644751
18243105
17571346
16939795
16791207
16604156
16344561
23006843
21499247
19330028
22323360
21385931
20937824
20729852
19706770
19584285
18453082
17134496
14580764
12761057
11813134
10369866
10220444
10072438
9799609
9751628
9500470
9403053
9311734
9020845
8923002
8563753
